{
  "id": "fravetier",
  "password": "$1$BZzEvpHD$ga5uHnrOPHzYZJVSHtxHi0",
  "ssh_keys": [
    "ssh-rsa AAAAB3NzaC1yc2EAAAABJQAAAIEAoJaSuRuNLWsnwNP3EmJOEe+wkfLzUbRAbu9abm3CCGnz5v9Ed8+aAzH3WVhoisrtREwLlm1xDqDkubXQg8stDHTqbFy7oYod5AIoW7LSLFHYoVmtbAb5avXoJr1ldY6lqyKa/ilmVaZbp/x8Anqhg/3bFLxU3IUt8W0ixo/aKoM= rsa-key-20091027"
  ],
  "groups": [
    "ametys"
  ],
  "uid": 9001,
  "shell": "/bin/bash",
  "comment": "Frederic Ravetier Ametys - 20160810 - frederic.ravetier@ametys.org "
}