{
  "name": "mdb-rpriv",
  "description": "Permet de créer un serveur MySQL 5.7 de réseau privé",
  "default_attributes": {
    "zone": "rpriv",
	"fstab": {
	  "partitions": {
	  
	  }
	},
    "sysctl": {
      "params": {
        "fs": {
          "file-max": "196605"
        }
	  }
	},
	"ulimit": {
      "users": {
        "mysql": {
          "filehandle_soft_limit": 65535,
          "filehandle_hard_limit": 65535
        },
        "root": {
          "filehandle_soft_limit": 65535,
          "filehandle_hard_limit": 65535
        }
      }
    },
    "yum": {
	  "mysql57-community": {
	    "baseurl": "http://repo-p.dmz.saintmaur.local/centos/7/mysql57-community",
		"gpgkey": "http://repo-p.dmz.saintmaur.local/centos/7/mysql57-community/mysql_pubkey.asc"
	  },
	  "packages-microsoft-com-prod": {
	    "baseurl": "http://repo-p.dmz.saintmaur.local/centos/7/packages-microsoft-com-prod/",
		"gpgkey": "http://repo-p.dmz.saintmaur.local/centos/7/packages-microsoft-com-prod/microsoft.asc",
		"gpgcheck": false
	  },
	  "update": {
	    "excluded": [ "mssql-tools", "msodbcsql17"]
	  }
	},
	"esabora": {
	  "mysql_users_databag": "esabora_mysql_users"
	},
	"glpi": {
	  "mysql_users_databag": "glpi_mysql_users"
	}
  },
  "run_list": [
	"recipe[esabora::mysql]",
	"recipe[glpi::mysql]",
	"recipe[yum-microsoft]",
	"recipe[utils::microsoft]",
	"recipe[dns_config]",
	"recipe[fstab]",
	"recipe[yum::update]"
  ]
}