{
  "name": "repo",
  "description": "Permet de déployer un serveur de repositories CentOS",
  "default_attributes": {
    "zone": "dmz",
	"fstab": {
	  "partitions": {
		
	  }
	},
    "reposync": {
      "repositories": {
        "base": {
          "minute": 0,
          "hour": 23,
          "mailto": "notification@mairie-saint-maur.com"
        },
		"epel": {
          "minute": 30,
          "hour": 23,
          "mailto": "notification@mairie-saint-maur.com"
        },
		"extras": {
          "minute": 0,
          "hour": 0,
          "mailto": "notification@mairie-saint-maur.com"
        },
		"centosplus": {
          "minute": 30,
          "hour": 0,
          "mailto": "notification@mairie-saint-maur.com"
        },
		"updates": {
          "minute": 0,
          "hour": 1,
          "mailto": "notification@mairie-saint-maur.com"
        },
		"fasttrack": {
          "minute": 30,
          "hour": 1,
          "mailto": "notification@mairie-saint-maur.com"
        },
		"openldap":{
		  "minute": 0,
          "hour": 2,
          "mailto": "notification@mairie-saint-maur.com"
		},
		"shibboleth": {
		  "minute": 30,
          "hour": 2,
          "mailto": "notification@mairie-saint-maur.com"
		},
		"mysql57-community": {
		  "minute": 0,
          "hour": 3,
          "mailto": "notification@mairie-saint-maur.com"
		},
		"jenkins": {
		  "minute": 0,
          "hour": 4,
          "mailto": "notification@mairie-saint-maur.com"
		},
		"rundeck": {
		  "minute": 30,
          "hour": 4,
          "mailto": "notification@mairie-saint-maur.com"
		},
		"packages-microsoft-com-prod": {
		  "minute": 0,
          "hour": 5,
          "mailto": "notification@mairie-saint-maur.com"
		},
		"webtatic": {
		  "minute": 30,
		  "hour": 5,
		  "mailto": "notification@mairie-saint-maur"
		},
		"google-chrome":{
		  "minute": 0,
		  "hour": 6,
		  "mailto": "notification@mairie-saint-maur"
		}
      },
      "hostname": "repo-p.dmz.saintmaur.local",
	  "accesslog": "\"|/bin/sh -c '/usr/bin/tee -a logs/repo-p.dmz.saintmaur.local_access.log | /usr/bin/logger -thttpd -plocal0.notice'\" combined",
	  "errorlog": "\"|/bin/sh -c '/usr/bin/tee -a logs/repo-p.dmz.saintmaur.local_errors.log | /usr/bin/logger -thttpd -plocal0.err'\""
    },
	"sysctl": {
      "params": {
        "fs": {
          "file-max": "196605"
        }
	  }
	},
	"ulimit": {
      "users": {
        "apache": {
          "filehandle_soft_limit": 65535,
          "filehandle_hard_limit": 65535
        },
        "root": {
          "filehandle_soft_limit": 65535,
          "filehandle_hard_limit": 65535
        }
      }
    }
  },
  "override_attributes": {
    "yum": {
	  "base": {
	    "mirrorlist": "http://mirrorlist.centos.org/?release=$releasever&arch=$basearch&repo=os"
	  },
	  "extras": {
	    "mirrorlist": "http://mirrorlist.centos.org/?release=$releasever&arch=$basearch&repo=extras"
	  },
	  "centosplus": {
	    "mirrorlist": "http://mirrorlist.centos.org/?release=$releasever&arch=$basearch&repo=centosplus",
		"managed": true
	  },
	  "updates": {
	    "mirrorlist": "http://mirrorlist.centos.org/?release=$releasever&arch=$basearch&repo=updates"
	  },
	  "fasttrack": {
	    "mirrorlist": "http://mirrorlist.centos.org/?release=$releasever&arch=$basearch&repo=fasttrack&infra=$infra",
		"managed": true
	  },
	  "epel": {
	    "mirrorlist": "http://mirrors.fedoraproject.org/mirrorlist?repo=epel-7&arch=$basearch",
		"gpgkey": "https://getfedora.org/static/352C64E5.txt"
	  },
	  "epel-testing": {
	    "mirrorlist": "https://mirrors.fedoraproject.org/metalink?repo=testing-epel7&arch=$basearch",
		"gpgkey": "https://dl.fedoraproject.org/pub/epel/RPM-GPG-KEY-EPEL-7"
	  },
	  "openldap": {
	    "managed": true
	  },
	  "shibboleth": {
	    "baseurl": "http://download.opensuse.org/repositories/security:/shibboleth/CentOS_7/",
		"managed": true
	  },
	  "main": {
	    "proxy": "http://proxy-p.dmz.saintmaur.local:3128/"
	  },
	  "mysql57-community": {
	    "enabled": true,
		"gpgcheck": false
	  },
	  "jenkins": {
	    "enabled": true
	  },
	  "rundeck": {
	    "baseurl": "https://rundeckpro.bintray.com/rpm",
		"enabled": true
	  },
	  "packages-microsoft-com-prod": {
	    "baseurl": "https://packages.microsoft.com/centos/7/prod/",
		"gpgkey": "https://packages.microsoft.com/keys/microsoft.asc",
		"gpgcheck": true,
		"managed": true,
		"exclude": "aadlogin-selinux-1.0*"
	  },
	  "webtatic": {
		"mirrorlist": "https://mirror.webtatic.com/yum/el7/$basearch/mirrorlist",
		"gpgkey": "https://mirror.webtatic.com/yum/RPM-GPG-KEY-webtatic-el7",
		"enabled": true,
		"gpcheck": true,
		"managed": true
	  },
	  "google-chrome": {
	    "baseurl": "http://dl.google.com/linux/chrome/rpm/stable/x86_64",
		"gpgkey": "https://dl.google.com/linux/linux_signing_key.pub",
		"gpgcheck": true,
		"enabled": true
	  }
	}
  },
  "run_list": [
    "recipe[reposync]",
	"recipe[yum-rundeck]",
	"recipe[yum-jenkins]",
	"recipe[yum-mysql-community::mysql57]",
	"recipe[yum-openldap]",
	"recipe[yum-shibboleth]",
	"recipe[yum-epel]",
	"recipe[yum-centos]",
	"recipe[yum-microsoft]",
	"recipe[yum-webtatic]",
	"recipe[yum-google-chrome]",
	"recipe[dns_config]",
	"recipe[fstab]",
	"recipe[yum]",
	"recipe[yum::update]"
  ]
}