{
  "id": "preproduction",
  "users": {
    "encrypted_data": "C7+oTht7c628rBal7gSmIHuKHXaYcG9egaEQzezo7znlrz71cGej1/e1gNYR\nzCV9H9ded5mgIsC3oh7RkwAmN5FdkEAmXuUpxoJQTeoxbCTsx2dgq7XYjs0k\n9fMOool7nSmfl8TOs29cQIUblX2uVbrGdYyaASeAHB4jSvzxERdgtdP+YZi0\nGXr278PjoAlR67McpiXQjBEsuovSWmPjOPNTp+YQjb5BfeK8p0dyZLjkF+Pj\nkcsTNALTwIPZStLYL7xUsZCZrypSX0HH7W35Av8/E7ObzGjXvSNBKlmfJ9WL\na4UYABAJFDMPE1nZIjoU2Nq7FikZRBFvA5Zkti4C6roUA0pQOwl+RkR0fOBY\ns8Kh+gRzrOeXmp/Xsc4iWkATJLo6ABU28Pf9vDpJYWDOXwK7taBejAVdBDue\nN/xqQHd5TIlLfs3JDm7UpEpdONQxFTO6rbMrZ/hjK7AFLNq1U064W2QOxQYP\n7X+JY6e87jaGbdVY0BsAUdXaUyk9nMfcQQZ58ElXY4NRka4ww4XRUvOOJBmU\nOiZ1sv1d30wmsFo112pmDy8lwr+h1ZiKsTz10pb2Q/0aBqXDFbeHihtWqjAb\ngUzCi0sZTL/NF1GDK/XIwsVZ5zof3tdw87yvul6A9dRTNc/qqIfeQGOsKfef\n8kNVLM/rqSFiCUxghnw+Ftkfc7q0AsOOZSX7XLcS19gLvSGihO3d7V8c5a5t\nhqiWwLZumoUtAj3yclW8xZExsBlLXFo+hpnZcn4gF/QOhHQSeSIMCZXdIUIg\nR2G6EZD+Cguhpld67+jznoJz+XP8x5qNo2lvjTHx7RU67Nq1sgK816U12mE9\n+7ZPnF6QzQBqZTkoifh01fsEfxWy0QIH8a59bzqf8VUwY6ug98rmDBGGq9VO\nG0mGaJ5/ig/dC42SrR/8FGSPtZayJrt1JmRxSuNZ22DlrvoYBsIVLTjI/gv7\nc2oMzVnF/pdcqoYPMhWCKGzuN05zPxWPogDoIT0OOiNDLhAnxHv+sjpdPXR9\nrVRjT9mKUa2br9BhebNHlaOTHXYmmKvwxCPKo4m3R1K+f5iyKJQR7buNVBSg\nDVKK+RnFNY9A9rpEFmfLxwRX9yhmSWsAv38tppLJ9MgipuEnTPV67wOq6ru9\nii8QJ0fcf3PQsULOYzz21wNPuWXMf9MiK/fivq4jj4XL50zRSuMLRjxuHSKu\n0TH1Nc9z15kQXHFLirVaMoCVtbrYIgby+3W+uVkQj0aH235hGOlKUzyN2bmE\nVTjUQjxvVq/XQ0ehCjqP3mkjPcdTtP1dEGZN60g7chnZqQpLRExLhiB+oysF\ncvKkN5MGPSdnasb+GmeT52ypxQpVltVxIrg+LvOx4jexOH3mSEphHA00oZlV\npCLernH616DozTCfDluAMQHHRxLZLcZMtgWUg+ox55gtA05v3YTcsBfErQLl\n5URpf50QKdLpw8gS1MzlchiS3tX7QGlxXRJdhgUYum8TH5bC92QcYENvlYQ6\n2F1VI1opDrZTCxDg3t7lpOTkxJr59Hw/6lgmNZaXrhjn8HStcVwjzT2tlyKB\nfe0ZBj0Vyqnljns+xHcLJOJ1dainx8Vkxjs/25rirEfX5/IWVh5hcjuaRn9l\nQBsJeQk8yCZS8jeEgKD+3HMvnj8xumbj4fCyj2tpoQ6ORcp1l3d0mLQQANy0\nBIT8RUEkyMYu7FuFtWJm74Z8fGd6k9YcdC86opHkqo848AzazGtLU2lFcpi9\n+PNsXmKuxvPpdl9AM0hXXKgoVVojXvmLLWTtZ+Hdmfwg0kMz2pwb7yrAKqzY\nN2iNAJvEq+ced/ATOQREMGMNOxB9py3oulXcIWsMCR5lWEI5Zx7e1/Yu2iDm\nsPRT4qfmLiAdAixVjX/DgGYBjVI+nABpVcZ3Cr08BlBZxgGhpqkXzRaIQm9G\np5MXP4xA93CEz8v0006sID1UmvQ+CHkpOAFeRf7whFVaJDqVFV7WQjCLJjxV\nqOjrUwXkjiICvz5j5frw/ZWXICOK3jXdCuSWeWZfRRhSGousMfbWunEHS/DQ\nK9AJo0X+xVncguuohLklxf4U0FN5zvhL+d1bLTPnVmWmQv39iPGK/krkPQAW\ncDu0efbkkHTkzK6RPhm5shkuf+aT1i0gR27BwFuZQA4CxxFOmTVWwb/vSZyK\n5A/fLBnn7IOxf7zNgtI8l+6mK6V93U8NUv/3Tq6uaucstkn3VpEAD5opoq19\nAkQi+aveUOVLhTbwugVPFDfoXaOxiNS8rN7/aTcZpgo2PkT5SZKLlCa6LJbL\nrpePDUcANYr3Yrw6SxpCoyay+u0+6Gt7/Yz3sg7fT794SFHI7fnsh/uA2jm8\nAJdqnmCe2A/pQjrXoFbGZRZHGKJcrJgMUt57LKk7pESv1aQPD+57fz+21QPc\nqA7VeoNJmIev1KDEp1ZBr2JzFrKIYgczc31Cs8prMstScE57JIhIxVHULG28\np+r3WWN4E+466npWKjIQqtwzVuySnB+6C9kb3bRlFsXnMk3hk3W7h1KvL5gD\nrVBiU5DLfAfrSGOB4/RcLtK+1tATLmwsAxJfva6zMpbl9o3hwdIqOqN/AX1W\nCCaoi/KKefPofmxwSJ9r6ivRPJO2hOMfnLxn5xCvLGUVoClhdIbTppjEVETf\nic0EAviOvA4rUIRYS160pSy91Lxq2mGKL96VGYkOQwrM7jqaW0MUdvaV3E9f\n1pzDomogrESAWQZsm0Vx5vl8PxWwTPgG/jTqe2OlXA50myqEhY0ufxxB1aOQ\nCPocAYlm0l0KPtbvZd0rgJvP1UvdA2FM5+kkFZGnjc1HZTAD555XIzeKftPE\n1RJAP8hKNPWrqSt+bFDflQEhv4YEpSl09sw2dScp+1zupu7iQY7E0S3INTaJ\nGM2hbMnMZzkITKGnujYxGMeTiBJwLl6jmSxnl9YH4FzdSj7szSg/MpWRyQP3\nPg4kSw/mizVe8apqi5/iqT53XI013NV8X51Td4NEro0ZLal78dXydjnEOQNC\nwPjFaXkPZESJTQaaRu8ezZ8MBLbryouqvLztXUr0Xhz3xT95hle9H4zV889v\nsNq1D8cFIVLzXd8epz3cCHCvrJu1jGEKEJ4J98ljEv+J4Rml2WAt4nS3vdac\nnZAwzxBvzxNTNpbrvc5EV2e8izEeKntoAzqnB+8fs9j8I4ujlf4pR2lIu8Ix\nNqv95CBWKvyyUSQ5oQ2JuNPDx+TMRKREWhQ9dFS6rA==\n",
    "iv": "NfGOQz5GKFjvWKhYepm5Zg==\n",
    "version": 1,
    "cipher": "aes-256-cbc"
  }
}