{
  "id": "preproduction",
  "users": {
    "encrypted_data": "+94oGau/JeQyKSigzFFsibRq9wHpTW6Vm1TbTa9UIR5RePYhlhNa8Ik/eZNg\n2xH7bg2hWnXcNtvAJ8CXwIsIezfLN+oUbcEsR0J/7Q3LMM6S2+x4ZObbTdaZ\ne73cuqzjd6Zjh5isxUzx3Jxi8MdUdo3lAjIgiHbnAF3G82E2bPg0idFAR6d2\nv6SoYBMvSdcOYwGvy41bc6CokTDBC80j21Kh0B/8jJ4asfu5hXjG8CzLDL6D\nDyGnkqvu2JnwA4QSoUAkGGv8uDhjdR3Bopm5C1V83BHdhyJAEJRbVFBkFIy3\nEebdZquKdJa4nfTunQ0skEPUYGde6gBXw5Vl9wjjo6Ci1wI86lPbhymg+IFh\nNPNM4bCQcs150FbO4TT62R4z\n",
    "iv": "kM8udt5yTMmR/Auy9cqeow==\n",
    "version": 1,
    "cipher": "aes-256-cbc"
  }
}