{
  "id": "aclpolicies",
  "aclpolicies": {
    "encrypted_data": "qxmZ8wZkdcGG2ENR+rpVvFeaHzKfyJMN1v8JiVoAxBc=\n",
    "iv": "3jckdIKXDVZjplwhx2jsMQ==\n",
    "version": 1,
    "cipher": "aes-256-cbc"
  }
}