{
  "id": "secure",
  "description": {
    "encrypted_data": "Ul2bf1Ej2i1QpqsSlCLfAHGltv+eMiEfMkzSAwuO2H5G6QK0Dm+bddexAVhH\nUjcKu0nln5FAXQSSgS5N7/7DiES/gzwclDY03Jhk832LidQ=\n",
    "iv": "D/zP0Xfrjf1481gLvZHkFg==\n",
    "version": 1,
    "cipher": "aes-256-cbc"
  },
  "private_key": {
    "encrypted_data": "Y8rUd07r0EfAJeiCJHgLKeBwnhKRYb3nFtFb1dWSE+t04PhYtKLn9DSK75p0\nz1lBhGT5th7vJRdwEZaw+qqxlRoBJK5+VBanQ5WujP0BlWG0OCm/JiHiG5UG\numYvfZPf2xPpPwzDK9cNXgrcFKr+LQ9uvyXiDrDFttb7NoQ3vqiTme0oRqvz\nV/Q+awQvAVFl6CYNuASqDx7j2RgkMANIr8IjjU3N2A20PnpsQVow9/YfuK4h\nyVMG08EEGR6spZbbGhFn/IDfUPI0D4SpaAlRk51m2oQmTRoRUhIF9nha6tD4\nCwwW5dvQl1ELKPG2JDQpEIPpcBoD1+0H7PgrqJD94QqnQUFfFkM93xRo7PF5\ni6GecYhUKRejE0NdkoIO5XNp09MO4bgAf/zKkyigSxmfx6WWXDnsvfyNBwW1\nrRAYVxA71gDQ0HQ4eDMq9Wgv/1eDYa69t5yCRR8/1QHREo4I6AFZPFTLQ7KW\nDAPRsKkuCJ3vbZcYYDYUB/VOfMRfnfZ8D8ieYJmwd0dHIBQUq+OX42xIEjMv\n1yW4QiGhdxBGUvBbPHnk/GpLn/kI6bIYouCHBCSxUIe5GigOr7/xltzztRt6\nEkyp9WbmU0w7nqX7hadVNf3mCd5Sb7wnwn9GmxoQ4OGxFE6UDlvcfjEMurU9\nOdwslzpdnEo5EnX3fdxh8UgnRh+zmTlyFyg+G0Hy12PQNcueA2R/vCHtbviN\n0H7gyEzuI3gOvE5aW8Q5VpQKczuCWRjbiL2ixKuUGhNF3qhklQvILYCaqmMw\n4GVcYAV5QY0Q7bTw8OlipFE/G5iOVqiJCK5SddgLovFItpDBSv3GXDa/j4Jy\nsVxhCXZkXHwxykBJWxUPX5VCBXuDM7tkWZKwChdcggC5BslCSLROyVkjE9eB\nLLnd6xqjMEQZ16FxNAQdDvB6NXZ045v/PWRzcgOV7jA47AM894lF9Ix47Tim\nnypk4RW3Z48ClPqeib6OKfTzlzoi8mC/bPZ0YDOazyZskF3U70P4RTNijMKk\niKniqjT3vqpiE3SMfS0AgyGwUha7ve3/QedKHgzOx2FCQh0AdGMpGflQeV/7\nVMp0CFF+WZ0VYG1Rq78i3HFuAor1q7efZqVoVIGdZIxMNpqRoDX8zqHbXKqU\nKVqay5SQUHxeMW5OjPWEi7dyG7TF8rzz73/19HFZue7YNOoXCV/v2SPSENiF\nRK1vYr6/m94nvdgZDfIyZ0lUun6bkKh4EZKljkAahN4SyS9Dbc5CWCMxeQdd\nJFCoj4SYy4VkYb/Sq8GQfFoTCpOdueGNLpLZzIq981sSvWl2Hz5HsMhek1s9\nKcReBBi0Mz+SyQH79ZN7BIiiF0Im5tExlR7/cRggu2CQGzbJg1pU96kbf6jw\nO2k0CH6fjHphsUC0YlRI3sBzjhgCzyv1xhn1gSSt8i4vSon22VONgeXBnX/G\nOzBDjldrNc2+LaL4Ya2/B7SZwmC0V+nwsLGA4K0MqiCzp83osWJq0E5gwsPo\nKuDCOZFJg4SSWrMrqlrSzvW7/BjQcfSZYprpgNf5ZmX6dtqgvJtdVQ5pQ81n\nFjBi+s5K2Jva0Qu+HPnQk7SS6PhCZMGSndRSSTyW3V97BuBvxe+qD/gM2kDe\nK6g5r7Ag61HFOeS/jixqGpoXnAfE7HNna7sxo08AlmKhpjskRS9DvLooikjl\nOpDKDS8XdsEhfq7NZn4bUmGPiaDQRFEkjbegb/MEq2ccadtofqxyrIS40/IX\nUOXH9xpJwKRzqxLfTl433M61kazh8teBoulifpKU5CIsTDTIamYKBdtDJSpL\nyzWvlrAh8bOtCGNvIgsNQBoo/BKfPUn37qY19E0NN71xTsMp8AkecQ8AgsqC\ncvNN24t4x5TyNMMgsxKFqOxFynTdW0F03V6Lsnf7icuhH74AlEuOHcB+/XCq\nnPhcuTIUERLss/OyXkY1uQVQXSZuYed923CI7jJAHVHclGNP2Iid/FnYK4Q+\n/TQEdb0RUroe5E+bd0JjdZ/Gz/W09epad2OoYBu852OKXmJZTo/h0OVM5C5w\ngSsS3UHo8aiUfgGJbpiFxXPm5tjIZnevytQDc3z2KUwz3fTcmkq9X+pTvk5r\n3c/OBkhqzg7NnMPVwF+lryMYiqUx1rbPlXcIFTI1FDpFhADO1V/aaxoFMdxg\nJ6lRwliWUk+LgCtaHa8WWB3bQ3yjxiJXxcfl7WLYJMfTszZkd0M7RflkZA1w\n/UR59+BTdTp6kJ2/HSenu8nE4y+hA8FYoEm+uc5TjdUGrobuIqcWwyDdaq9d\nnRsdYm2vG7jKNpsrBS7GL0jd\n",
    "iv": "JFAI6lQ47acLJV59XvWxXg==\n",
    "version": 1,
    "cipher": "aes-256-cbc"
  },
  "public_key": {
    "encrypted_data": "gsgfMLn4a0s8NVwIlt0DimQR6+mb6XfAfiRTLq6g819GId4BEiorjsiYUxd+\nI8PSeS+7bAobch/IH0Fd9g2E/u5t7PW1om9ID9P/dOTP99QSKEf+41RySaB3\nI8kGscwYugYlE/CRdn5NdrknngA2gIco3LUB2faGNkPV+9xo9MAZFMQYFZgX\nZzxLeBq3QO5HOsW+x4UcZqkrrt5/tY+lPjEfWytL04xXT2kTIwcSkVz75l6p\n9q+6v+fCyvJkgrDL2IyD/C/d30eg1yTKhZKUPbO59Hjz1BkYWpThQ0eGHHXj\nzcsXo/8iu1LoAvX39csWy22ivBepRNM6tYiufBBwogENBikn+Ri6cFddpUDS\n8PjpxtG6Rmlk5nm/ya6UpkkKo+C4zXnAILOskNuVM7sLdYhkpAjPtkGQlZ7p\nzKsJJYohITq91JlYH1Ysrkc8WHbIehVr1lgTiIEV0GAWTlxZykFaLHnyQg6X\nmjTxkFzWWU1PxPgZ2q+ndIRFaB9RTqeiXGuNTQIVcX+G5p6aRl8EWneOmCcO\njL12ujWmfVCOt3zhBZ1DxeVludl51ygT42Il\n",
    "iv": "NDb+WzXY04JYtVn28K6I5w==\n",
    "version": 1,
    "cipher": "aes-256-cbc"
  },
  "windows_password": {
    "encrypted_data": "df4nU6LRRpU4NHUTTuBHOR/eYKQ1CXQ2trUXAxDUNXpanX/zqVuTdNMSIXif\nRHOd\n",
    "iv": "mtI62NilIXkSB4EeQU3knQ==\n",
    "version": 1,
    "cipher": "aes-256-cbc"
  },
  "chef_rundeck_pem": {
    "encrypted_data": "iS00de3upxy3eIm0aCseyMxnXV51wmi8lKhmwG/80HbNR/QSKg+sS6mST3rx\nceCFGbDQfniIJ/DlND3R+ULkc5n1JmodBPr+KNJ5ZEvJdJ+R9mhd+xBWWZmD\nc2Nij6jOkSLhKxDTvAT0HFcUkbOzEhWeIT+jsdAIlZnX0IA3EoMc5MiGzkGu\nNM9V3zfDW2pvuVHiiI0lolKwx4+cac5Bwg8868iQMocYvcBmS6zd/b1rQv4c\n4ND2CdI+wCUfx2wDAp7CChlBrsPSp9kIZRaXGYHN8ERllBtzonfRBfah8Zpv\nxIdmlf52hKIMropSETQsjVmIppopsVDBHuNR0q4zAzEPA7KxJ7dJ3QX/1s2+\nGFGbieHMhHrWQGVhsj6FBsBd48M2ucxEeFqfyUcK0VDNwRp38GKBzhTQlZyy\nSTuW5eG4Mu+nxBENST6rCd7eDqKiSuCdM0Govn4Ix/o8ml3555m2v6izzeu7\nm40yPvFESeNi64HcmQrjzc0E7M7DvJtDT01o+H/q6wVDPFzRWHcdYpekcQBO\nHoef04r57o/aE2EtoYQnMveI8LT2ZHN2+NHWjBkci+I9M8oTj/WHmGWGBQyK\n5hbB2YDkrio9O21v6vSkMhTNUQNxfk+HfkD8UMljVj2nDiah+Ed4GGMXeGzw\nk7teIyXcvZTUspAecGtOwFZVQr0DrnY3jIr5SG+vN1M0gcoekJuLlnbx/rAm\nZHF+vjQ/6kW5njnDC3M/Pgd2IQP0rtm/K9P6BjKe6aDwDx0EE/gfEOiZdZ+A\n+WIiZu59XoAEQP8n5bEdW2dJ5I/eoY9uN+BO33DhdMEK8mJu8Ky3DLTdqpCc\nSmm1arq+lgM0hIFq/882PxdWk9P4Ie1d7MRAL6naBSbVsUxT/q+hZepCc/4O\no0Y5DAGqDkt3XOBUmvIQB+yxF4X9K4RZeABzZmowg5Jd8uQFpAJ2Hx2pwmU8\ngpCBd/s7HLSSIuUzplVB3+p9LRWRqckE7pLMP8hWCtCQ5v+lBqTDD2gE4fZA\nVibK+xOQtd4W3k05yHKD66jQXraeTTPT0Vsx8QpflG3SwYfLVobI3vrJFVks\nJVw06GcJnS85bfNGPLlawfEdvyDagGrE0t6coiLXUCshCI0q1i1rtE8XRFX+\nGSx0/kbOl0N4htEsez9t894yxPXL6H+2t/v7lo1Py7jnGil0/LSKG9++hJA8\npEJKPQvyMjf981T+M9NFev2wfEOmsTjDBHYZIWEWFKFtQpAnVWKbVG3BuKTY\nm8UoJsgh8FLFJMYSPezFwWAA8oiN7PiHgrNBdHecL0OBDHOZ1EEoZWGu/7lg\nm9SkU/nRcx8wFFiZftqYhWi7dhJchiEXzBh94KxsEAeaaN54BlVEyjPzFDQr\nuO1cOjjy7z963gr2ibyEGSLzbfuCk3pmRaAcQcZO1ur90CSz77/BqcaYhOsJ\nbK2bmI/SZvMvs0zNIuPIz4YscTRv+U45Qro0pf/QxXLDCpmdZt5mq3xldn8G\nzNhBfFfhYHguNVBlMdv7wCdfES8TaE202TSwEghBhnYAHbDoJoM2OX0YvMBN\nGm7CEwAlT4dCxCIFs+niX4wDUy30aDYmasPhc2KjiaHUPacRhWdlLEFb86K4\nuYOyqREXUIsSIR/dIGRMrzuIdMHQZs4PDVE7F9X58ztuB8QcRB0opnSYuIVC\n0s4nlBk0fQYsvF/WFZV4qgz1Dx5uitLvFc40lbLQEXaHX5CpMSVOo5kSKIWW\nHBntTszvebmETFFYteSM3jjibuvX57clVLX/2SOyWzgBcnXt3w16rf9W6qyW\nhCvNCWykweDCRIYZ6FTQwTk6LRfiI95aKU5ZiQzQAiWHXgCxL05div1eFcZL\n4HPVvthsPimSFTaIwq6aQzGywqnPGQe4+T8xqVp+3kkAQLMtM2Y97iyQtZSX\nP3gt4O8RUKIoCmdCBY2bkRydekgmb9psJn8Kw0sTH58x2LC2Fax4cSZfgVWR\nRudj8t7LWvjb+ALm7fm7Wfcogm+meL3J9eXzN6MHYpAo5My/OVNlOpk10jJT\nxNIhkuEeR41H0v9zftFegIzkK2uuqfaEHWLm3NaxD99E3pAyHfaJyh7qrbD2\nqdKIzV3hwYL1myrAIIEP8PFnosGP3KhIO2LKOd5/C5FTDA54CL+/qGYQfMFq\n1PmZMgPJa3pScvJ3F7pCpf20LBlGoapajZqJj0sUudkoroyvT2qBLHHz7+a3\nv9kbWf911KoK8EDtDOrd5G7oUr8WhAIymOnX80xtNGmdF5bXjh2h7/zznH/0\nzBGqAmjgaph8j6MmWgR2dQIK\n",
    "iv": "2fmPXvXzDvvTzC3yT/PkoA==\n",
    "version": 1,
    "cipher": "aes-256-cbc"
  }
}