{
  "id": "preproduction",
  "filters": [
    {
      "id": "reservation-vehicule",
      "PolicyRequirementRule": {
        "type": "OR",
        "rules": [
          {
            "type": "Requester",
            "value": "https://reservation-vehicules-x.mairie-saint-maur.com/"
          }
        ]
      },
      "AttributeFilterPolicy": [
        "uid",
        "mail",
        "mobile",
        "sn",
        "givenName",
        "smdfUniqueID",
        "telephoneNumber",
        "carLicense",
        "memberOf",
        "smdfPole",
        "smdfDirection",
        "smdfService",
        "smdfUnite",
        "postalAddress",
        "postalCode",
        "l"
      ]
    },
    {
      "id": "bo-zones-bleues",
      "PolicyRequirementRule": {
        "type": "OR",
        "rules": [
          {
            "type": "Requester",
            "value": "https://bo-zones-bleues-x.mairie-saint-maur.com/"
          }
        ]
      },
      "AttributeFilterPolicy": [
        "uid",
        "mail",
        "mobile",
        "sn",
        "givenName",
        "smdfUniqueID",
        "telephoneNumber",
        "carLicense",
        "memberOf",
        "smdfPole",
        "smdfDirection",
        "smdfService",
        "smdfUnite",
        "postalAddress",
        "postalCode",
        "l"
      ]
    },
    {
      "id": "impression",
      "PolicyRequirementRule": {
        "type": "OR",
        "rules": [
          {
            "type": "Requester",
            "value": "https://impression-x.mairie-saint-maur.com/"
          }
        ]
      },
      "AttributeFilterPolicy": [
        "uid",
        "mail",
        "mobile",
        "sn",
        "givenName",
        "smdfUniqueID",
        "telephoneNumber",
        "carLicense",
        "memberOf",
        "smdfPole",
        "smdfDirection",
        "smdfService",
        "smdfUnite",
        "postalAddress",
        "postalCode",
        "l"
      ]
    },
    {
      "id": "glpi",
      "PolicyRequirementRule": {
        "type": "OR",
        "rules": [
          {
            "type": "Requester",
            "value": "https://glpi-preprod.saintmaur.local/"
          }
        ]
      },
      "AttributeFilterPolicy": [
        "uid",
        "mail",
        "mobile",
        "sn",
        "givenName",
        "smdfUniqueID",
        "telephoneNumber",
        "carLicense",
        "memberOf",
        "smdfPole",
        "smdfDirection",
        "smdfService",
        "smdfUnite",
        "postalAddress",
        "postalCode",
        "l"
      ]
    },
    {
      "id": "grc",
      "PolicyRequirementRule": {
        "type": "OR",
        "rules": [
          {
            "type": "Requester",
            "value": "https://grc-x.mairie-saint-maur.com/"
          }
        ]
      },
      "AttributeFilterPolicy": [
        "uid",
        "mail",
        "mobile",
        "sn",
        "givenName",
        "smdfUniqueID",
        "telephoneNumber",
        "carLicense",
        "memberOf",
        "smdfPole",
        "smdfDirection",
        "smdfService",
        "smdfUnite",
        "postalAddress",
        "postalCode",
        "l"
      ]
    },
    {
      "id": "standard_tel",
      "PolicyRequirementRule": {
        "type": "OR",
        "rules": [
          {
            "type": "Requester",
            "value": "https://standard-tel-x.mairie-saint-maur.com/"
          }
        ]
      },
      "AttributeFilterPolicy": [
        "uid",
        "mail",
        "mobile",
        "sn",
        "givenName",
        "smdfUniqueID",
        "telephoneNumber",
        "carLicense",
        "memberOf",
        "smdfPole",
        "smdfDirection",
        "smdfService",
        "smdfUnite",
        "postalAddress",
        "postalCode",
        "l"
      ]
    }
  ]
}