{
  "id": "integration",
  "certificates": {
    "idp-backchannel": "-----BEGIN CERTIFICATE-----\nMIIGADCCBOigAwIBAgITGwAAACY16kUZEXH08gAAAAAAJjANBgkqhkiG9w0BAQsF\nADBJMRUwEwYKCZImiZPyLGQBGRYFTE9DQUwxGTAXBgoJkiaJk/IsZAEZFglTQUlO\nVE1BVVIxFTATBgNVBAMTDFNBSU5UTUFVUi1DQTAeFw0xNjA4MTYxNTM3MzlaFw0x\nODA4MTYxNTM3MzlaMIG0MQswCQYDVQQGEwJGUjEVMBMGA1UECBMMVmFsLWRlLU1h\ncm5lMSEwHwYDVQQHDBhTYWludC1NYXVyLWRlcy1Gb3Nzw4PCqXMxLDAqBgNVBAoM\nI01haXJpZSBkZSBTYWludC1NYXVyLWRlcy1GT29zc8ODwqlzMR0wGwYDVQQLExRT\nZXJ2aWNlIEluZm9ybWF0aXF1ZTEeMBwGA1UEAxMVc3NvLWkuc2FpbnRtYXVyLmxv\nY2FsMIIBIjANBgkqhkiG9w0BAQEFAAOCAQ8AMIIBCgKCAQEA6iXq+EoucEyTaqHf\nUNqgIhvv/OrBS4BwODpIfNHH7PbY7dI59Lw6aCAa9QIn0ObD2Uk3KrNUSEqPlEaB\nneIORjGO08+Z3w/RLqZy8njZiQrMtUjgXcu19fZb9eoSXW2C8AhvUHo19pNsUEvg\nJszTyrNGI+eypgIRjfiGlKsOxa05vgmj6eiFga8AJ16gJdFNl4V2v+5pp15uekbH\n9jpSVsG7Fuazml7Rf1eGFUU4p1nrVCeOuyg569ZOrIE4tAM0IO5KmcEQ3/5yCgp8\ni3YAahsKxzeNY2Ghb2wPBsv/m6cVqD30dEWSQelVScRnvLdUO1AA7jiuSolYhGFW\nPTujKQIDAQABo4ICczCCAm8wDgYDVR0PAQH/BAQDAgWgMFAGA1UdEQRJMEeCFWNh\ncy1pLnNhaW50bWF1ci5sb2NhbIIVc3NvLWkuc2FpbnRtYXVyLmxvY2Fsghdzc28w\nMS1pLnNhaW50bWF1ci5sb2NhbDAdBgNVHQ4EFgQUIDw7TVaf3/DOss6IwDaw+SIt\nwwowHwYDVR0jBBgwFoAU/gsP2gD4rjzE2Wxqp7uIh4G8rG8wgc0GA1UdHwSBxTCB\nwjCBv6CBvKCBuYaBtmxkYXA6Ly8vQ049U0FJTlRNQVVSLUNBLENOPVNSVi1BRCxD\nTj1DRFAsQ049UHVibGljJTIwS2V5JTIwU2VydmljZXMsQ049U2VydmljZXMsQ049\nQ29uZmlndXJhdGlvbixEQz1TQUlOVE1BVVIsREM9TE9DQUw/Y2VydGlmaWNhdGVS\nZXZvY2F0aW9uTGlzdD9iYXNlP29iamVjdENsYXNzPWNSTERpc3RyaWJ1dGlvblBv\naW50MIHCBggrBgEFBQcBAQSBtTCBsjCBrwYIKwYBBQUHMAKGgaJsZGFwOi8vL0NO\nPVNBSU5UTUFVUi1DQSxDTj1BSUEsQ049UHVibGljJTIwS2V5JTIwU2VydmljZXMs\nQ049U2VydmljZXMsQ049Q29uZmlndXJhdGlvbixEQz1TQUlOVE1BVVIsREM9TE9D\nQUw/Y0FDZXJ0aWZpY2F0ZT9iYXNlP29iamVjdENsYXNzPWNlcnRpZmljYXRpb25B\ndXRob3JpdHkwIQYJKwYBBAGCNxQCBBQeEgBXAGUAYgBTAGUAcgB2AGUAcjATBgNV\nHSUEDDAKBggrBgEFBQcDATANBgkqhkiG9w0BAQsFAAOCAQEAkz8IVLKPgi6f5HEm\n/D5cvCqq6uDJwnComsY092T0xwQCaOenRRTO+meG0k70YWxuTkwG/2eCfCyE2yqf\ncdVK0eiWCbkg4y/oajk7mx34lrDTAKeJ2p155JkPsPOhfrkUZNmZbzWLBErLoZoE\n1KWv1lHFDtd+z0IXLBsLSXdOF14fhC1Vx3TtYYBheHW1IqyUNR+oyIQ5A16K27aU\nzG+IZo892edVSVyHAD0nJ/Ge1Mq8vUx11Jq7WNhqrbcuvarIdZPP/GOgo1rp86nF\nkvXkXEupbzRdLSi+1HW1QJDAidMg2Gs9yjSLgO5fATPPYhGhIEpper5qzZWyUwEG\nlve4qA==\n-----END CERTIFICATE-----",
    "idp-encryption": "-----BEGIN CERTIFICATE-----\nMIIDPzCCAiegAwIBAgIUGJfnsSP0l0sRklNzGlvizKslZRgwDQYJKoZIhvcNAQEL\nBQAwIDEeMBwGA1UEAwwVc3NvLWkuc2FpbnRtYXVyLmxvY2FsMB4XDTE2MDcyNjE1\nMzQwMVoXDTM2MDcyNjE1MzQwMVowIDEeMBwGA1UEAwwVc3NvLWkuc2FpbnRtYXVy\nLmxvY2FsMIIBIjANBgkqhkiG9w0BAQEFAAOCAQ8AMIIBCgKCAQEAgotmuS1JKkUC\n0G0p0NnlXM+GOllrt6hcyAdN1whO4kC2D1dkZaHz4xTAHySB/4gY7C9MXcfOjcne\nH4iT36Fl8/WB+fQn/q4tN7BjYOkoJwezpjR36weQTIV+hCBklS2JCvKaQVvwmK5D\nSYsBz88HB38cgrlAeCA24vH3age2QHFvsNdlUftRVujlxnF1SF4ORcepFxN3oJ9/\n8sbXvjjO3Qegvbjies4UI1nm/j3hADA59S8D+N5i3X5BKLqKxkK0Mw2lKLRJV9IZ\nvyBXRH8arbtSr/DmlTELmx2lqTxHA4h3Zzl4WRx6SoF/SoKE4vLBpfoV7b8i2v99\nTesv1y/zswIDAQABo3EwbzAdBgNVHQ4EFgQUVuMIgjUHLfppVkKMaPvuahX8f6kw\nTgYDVR0RBEcwRYIVc3NvLWkuc2FpbnRtYXVyLmxvY2FshixodHRwczovL3Nzby1p\nLnNhaW50bWF1ci5sb2NhbC9pZHAvc2hpYmJvbGV0aDANBgkqhkiG9w0BAQsFAAOC\nAQEAQJxmU03wJGNXKoYW142PKC1JH2LbObtWjDZAYlaOzzIXEKn6+Yv9gH5C+9xT\n9+fjERfnsijOx6bk4miqAnywfR0xEforQAZhAebZK1NTGC56+dSjpK7rSZYupfh6\nGakMCXbkML+9CXdP+VAA9R5luE+FN0oXpq9s3Rq7LYvb1/qXdtkCHAOkEaiDA5FY\nXSqXB0UNW7Cwl3duAP0ko7aINrWB9Y2t5PdyyQ9tKjGY08ggxbyAYEZOaB01PbUA\nLX9p0w/Jy6xH1qrl4bsZ+1nbH3pYi/alDRl46Sw+WFuQrhn0bOhsfJyFtjLDRaYU\nC8vFburNt8B8zNBuxWd9/k75CA==\n-----END CERTIFICATE-----",
    "idp-signing": "-----BEGIN CERTIFICATE-----\nMIIDPzCCAiegAwIBAgIUXpE2krsktoOOePwgc8//zjcgwLAwDQYJKoZIhvcNAQEL\nBQAwIDEeMBwGA1UEAwwVc3NvLWkuc2FpbnRtYXVyLmxvY2FsMB4XDTE2MDcyNjE1\nMzQwMFoXDTM2MDcyNjE1MzQwMFowIDEeMBwGA1UEAwwVc3NvLWkuc2FpbnRtYXVy\nLmxvY2FsMIIBIjANBgkqhkiG9w0BAQEFAAOCAQ8AMIIBCgKCAQEAlfuy6ybAV1wA\neiIt/s0lu/UdJnkXDS0Kxf+8dlWz1Ppd1DCLFMrYb+Yrv47f9B2L8gR5Huedab7h\nfjV6m18eID3fnFD8JmFuD730xxu3Nu+/KJ/hCx7ZZNPZTCGwSGGB6rZbrtgYFWf7\ng45ag5wKSOuKvvVluYNtHBnNZv0iIr/yzOPYBj7Qx6VHfN6hsP8t9eAtfP+q4GnF\n+g9Vg8oYdr6JvGqNLw8hgucChm5BjJmVkxcBOlIHwwEfjQFsg/weyAuAETCXxOUr\nkVSlOKkJ0KgbHpYebFUN8lg0BCFHs7XOOE70q6+FcK3RqDPMfvAGX/TmkpFQb6ov\nu7LYJ6CjDwIDAQABo3EwbzAdBgNVHQ4EFgQUoJwaYXK5cdUMOAyVgDJI8Ccjz1Qw\nTgYDVR0RBEcwRYIVc3NvLWkuc2FpbnRtYXVyLmxvY2FshixodHRwczovL3Nzby1p\nLnNhaW50bWF1ci5sb2NhbC9pZHAvc2hpYmJvbGV0aDANBgkqhkiG9w0BAQsFAAOC\nAQEANEixi6Xu+w/utUMIqL1VBFh++dFtzyRxtAaYvjRXJqhZZxn4eY0B5bqU3P36\nM5K2aFZY4oELuc0k5oUPkdNGhi/FjgXgRIqOYUuKkAcbmJy7tOhcxEfHfad56rCh\n5DQ3nhhpT7x/HfYxfYMdzd0W4mTXPgXVWMz06CQbpzdfMJ/xoTJ1QUkM/Dl4XdqA\nJVcr1o+f/sPTfkdRHHT1pKP5spcto4dLhSLQ2Mx1tiAe85cTKFKb/kyFG0C01RTl\nbSz/Kn2naJKg+tX/LYCbVLG1/OeQhNHNQkeuw3aCWo7KA9Wh9YFH6KmsPUG+MopA\n+rxtRKk0dKX4lNiHqYZIVQOq7w==\n-----END CERTIFICATE-----",
    "ldap-authn-server": "-----BEGIN CERTIFICATE-----\nMIIDgjCCAmqgAwIBAgIQEVSw/A7QtY5DU/4WnmhMPjANBgkqhkiG9w0BAQsFADBJ\nMRUwEwYKCZImiZPyLGQBGRYFTE9DQUwxGTAXBgoJkiaJk/IsZAEZFglTQUlOVE1B\nVVIxFTATBgNVBAMTDFNBSU5UTUFVUi1DQTAeFw0xNTAzMjIxNzQwMzJaFw0zNTAz\nMjIxNzUwMzFaMEkxFTATBgoJkiaJk/IsZAEZFgVMT0NBTDEZMBcGCgmSJomT8ixk\nARkWCVNBSU5UTUFVUjEVMBMGA1UEAxMMU0FJTlRNQVVSLUNBMIIBIjANBgkqhkiG\n9w0BAQEFAAOCAQ8AMIIBCgKCAQEA4IHnU6aLIuSFSJQ26iaYnoj+K5k7qoXP7UKL\nfYN8s8vJoQ5t/GCpicKYhZ0TlyrROtRsRg4aNmzg6z+VJmNjPQBuTRSPwyfGRmmn\nCE6+AtztbZQKQx+BDRv586aO8y1yCVeI7WrgvKP1u3e5f8P1uTfJKqUNKWxmP80E\nT7n0mi8qXsUJrVVmAI1Pvc0Ue5Aaz/bglKWHzlGD3+qxKbyoksBniHhPJ72VIh9f\n6qEdZyOSVExVEfYhC8pQrbPGwy26wz+3oIHid4S6hxt7k7fpjfpnxhk55+Rd3J/E\nvHj71nUJGvqF7NYD9O4G5KqoWet9GAmjKYbM4M06ZJprIpCtLQIDAQABo2YwZDAT\nBgkrBgEEAYI3FAIEBh4EAEMAQTALBgNVHQ8EBAMCAUYwDwYDVR0TAQH/BAUwAwEB\n/zAdBgNVHQ4EFgQU/gsP2gD4rjzE2Wxqp7uIh4G8rG8wEAYJKwYBBAGCNxUBBAMC\nAQAwDQYJKoZIhvcNAQELBQADggEBAIZvizgl9MuE2/DqCk6CNEQvbko6oC+O/Hzq\niMf5QRh/eUBOecHg/77yo8YNns2DRcu4Qog7UT0DZ2YE6lSRrMD+yddY8gmK/XHV\nyjD20KZCT1tIC4QCkEd5He2R8ywo9sUaREj9hYj9i1jVeUh6BH1ie5i5hdnGzpBZ\nZfmO9LTuRcGvsUGuJ7Am/bwIP0WN1W3y6Z0T083oWeofVUa3qpKu6akxfSUH5MBx\nyTwd93Vmt1LHSVdYBmYCSfU8weJIQyUUWgRd1N+TWa7TE7lHasBGQjXb4CQNd3+4\nLXw2zJDTZc6lG9r+4am6gIMy4vrvO6N9AkImHRZ2Nc/b3DZwdK0=\n-----END CERTIFICATE-----",
    "saintmaur-ca": "-----BEGIN CERTIFICATE-----\nMIIDgjCCAmqgAwIBAgIQEVSw/A7QtY5DU/4WnmhMPjANBgkqhkiG9w0BAQsFADBJ\nMRUwEwYKCZImiZPyLGQBGRYFTE9DQUwxGTAXBgoJkiaJk/IsZAEZFglTQUlOVE1B\nVVIxFTATBgNVBAMTDFNBSU5UTUFVUi1DQTAeFw0xNTAzMjIxNzQwMzJaFw0zNTAz\nMjIxNzUwMzFaMEkxFTATBgoJkiaJk/IsZAEZFgVMT0NBTDEZMBcGCgmSJomT8ixk\nARkWCVNBSU5UTUFVUjEVMBMGA1UEAxMMU0FJTlRNQVVSLUNBMIIBIjANBgkqhkiG\n9w0BAQEFAAOCAQ8AMIIBCgKCAQEA4IHnU6aLIuSFSJQ26iaYnoj+K5k7qoXP7UKL\nfYN8s8vJoQ5t/GCpicKYhZ0TlyrROtRsRg4aNmzg6z+VJmNjPQBuTRSPwyfGRmmn\nCE6+AtztbZQKQx+BDRv586aO8y1yCVeI7WrgvKP1u3e5f8P1uTfJKqUNKWxmP80E\nT7n0mi8qXsUJrVVmAI1Pvc0Ue5Aaz/bglKWHzlGD3+qxKbyoksBniHhPJ72VIh9f\n6qEdZyOSVExVEfYhC8pQrbPGwy26wz+3oIHid4S6hxt7k7fpjfpnxhk55+Rd3J/E\nvHj71nUJGvqF7NYD9O4G5KqoWet9GAmjKYbM4M06ZJprIpCtLQIDAQABo2YwZDAT\nBgkrBgEEAYI3FAIEBh4EAEMAQTALBgNVHQ8EBAMCAUYwDwYDVR0TAQH/BAUwAwEB\n/zAdBgNVHQ4EFgQU/gsP2gD4rjzE2Wxqp7uIh4G8rG8wEAYJKwYBBAGCNxUBBAMC\nAQAwDQYJKoZIhvcNAQELBQADggEBAIZvizgl9MuE2/DqCk6CNEQvbko6oC+O/Hzq\niMf5QRh/eUBOecHg/77yo8YNns2DRcu4Qog7UT0DZ2YE6lSRrMD+yddY8gmK/XHV\nyjD20KZCT1tIC4QCkEd5He2R8ywo9sUaREj9hYj9i1jVeUh6BH1ie5i5hdnGzpBZ\nZfmO9LTuRcGvsUGuJ7Am/bwIP0WN1W3y6Z0T083oWeofVUa3qpKu6akxfSUH5MBx\nyTwd93Vmt1LHSVdYBmYCSfU8weJIQyUUWgRd1N+TWa7TE7lHasBGQjXb4CQNd3+4\nLXw2zJDTZc6lG9r+4am6gIMy4vrvO6N9AkImHRZ2Nc/b3DZwdK0=\n-----END CERTIFICATE-----"
  }
}