{
  "id": "production",
  "certificates": {
    "idp-backchannel": "-----BEGIN CERTIFICATE-----\nMIIFgTCCBGmgAwIBAgITGwAAALS9rLNanK3XWQAAAAAAtDANBgkqhkiG9w0BAQsF\nADBJMRUwEwYKCZImiZPyLGQBGRYFTE9DQUwxGTAXBgoJkiaJk/IsZAEZFglTQUlO\nVE1BVVIxFTATBgNVBAMTDFNBSU5UTUFVUi1DQTAeFw0xODA4MjQxMzQwNTlaFw0y\nMDA4MjMxMzQwNTlaMIGHMQswCQYDVQQGEwJGUjEVMBMGA1UECBMMVmFsLWRlLU1h\ncm5lMR4wHAYDVQQHExVTYWludC1NYXVyLWRlcy1Gb3NzZXMxDzANBgNVBAoTBk1h\naXJpZTEMMAoGA1UECxMDRFNJMSIwIAYDVQQDExlzc28ubWFpcmllLXNhaW50LW1h\ndXIuY29tMIIBIjANBgkqhkiG9w0BAQEFAAOCAQ8AMIIBCgKCAQEAm6QmhDL8qhXd\nPeq4lXmHr09PvvYNPcvP7+/8gZ0OtkN2U+0GluNOE27kbS1wZ5mPhrrPtQeyc3vC\nZru9CbQtXUs1CSJWiLovV7/Z5kDyAHNuQFiMxWhBh99IKiYT5jvS21bA7tfCtgXH\nfFFhhNDBb7S80I0m39PVp7KiQk98hl6Mzk329SWnG8ET8d5tloG0NpdpzhSpg0tH\nMHNwS8xWLFxI5yyDmgT3Siwq1WtAyMW1D0sBJuCXkN6f7hPp6PisQ/EJ9aFNV4Kx\nC0KiPe9mqQgyJqdI8SC3foMOS2OgEGldtORSPVHfsB/nZFT6zXNklNGlJ6yWB06U\n1C1iF1pU3wIDAQABo4ICITCCAh0wHQYDVR0OBBYEFMY7W/hzVdpcptVn8TG0g+rL\ncUwHMB8GA1UdIwQYMBaAFP4LD9oA+K48xNlsaqe7iIeBvKxvMIHNBgNVHR8EgcUw\ngcIwgb+ggbyggbmGgbZsZGFwOi8vL0NOPVNBSU5UTUFVUi1DQSxDTj1TUlYtQUQs\nQ049Q0RQLENOPVB1YmxpYyUyMEtleSUyMFNlcnZpY2VzLENOPVNlcnZpY2VzLENO\nPUNvbmZpZ3VyYXRpb24sREM9U0FJTlRNQVVSLERDPUxPQ0FMP2NlcnRpZmljYXRl\nUmV2b2NhdGlvbkxpc3Q/YmFzZT9vYmplY3RDbGFzcz1jUkxEaXN0cmlidXRpb25Q\nb2ludDCBwgYIKwYBBQUHAQEEgbUwgbIwga8GCCsGAQUFBzAChoGibGRhcDovLy9D\nTj1TQUlOVE1BVVItQ0EsQ049QUlBLENOPVB1YmxpYyUyMEtleSUyMFNlcnZpY2Vz\nLENOPVNlcnZpY2VzLENOPUNvbmZpZ3VyYXRpb24sREM9U0FJTlRNQVVSLERDPUxP\nQ0FMP2NBQ2VydGlmaWNhdGU/YmFzZT9vYmplY3RDbGFzcz1jZXJ0aWZpY2F0aW9u\nQXV0aG9yaXR5MCEGCSsGAQQBgjcUAgQUHhIAVwBlAGIAUwBlAHIAdgBlAHIwDgYD\nVR0PAQH/BAQDAgWgMBMGA1UdJQQMMAoGCCsGAQUFBwMBMA0GCSqGSIb3DQEBCwUA\nA4IBAQCEBW9QQIoj7efagBIctC9tU5FPfoLPiIs9wBdfQ4M46ucKuYO2qxqHb80P\ncz0v5QoYFnz3PJHKcl7Ju6Ma7ZiovUtF962YjEd9RLXHd3jOUzgAkVavl42C+J4d\nBw8EHdLasSYAGiqVNganCX75p3dTF7Oq/NGsOOWc9Yr2VuKNCPZb5LArAJNzi9h6\n/k/pxIrN2Wa6GG9235Tp8IEfA+L82nEBWyBzdzXL7GQSw6ZsPF+cxLV/I4ccpi/Q\nW94fpb+ohBH4UkL2ddEDwdVXqGgGsMBiVspujU2eHfyGZNuoEnE55P+HP1g4I1/Y\nuCFdlNqBK2yT9pORAHKf+vzct0WD\n-----END CERTIFICATE-----",
    "idp-encryption": "-----BEGIN CERTIFICATE-----\nMIIDUDCCAjigAwIBAgIVAOhMUatZ5zZfBpzau7r1D3o2iv/yMA0GCSqGSIb3DQEB\nCwUAMCQxIjAgBgNVBAMMGXNzby5tYWlyaWUtc2FpbnQtbWF1ci5jb20wHhcNMTYw\nODAyMTMyNDMxWhcNMzYwODAyMTMyNDMxWjAkMSIwIAYDVQQDDBlzc28ubWFpcmll\nLXNhaW50LW1hdXIuY29tMIIBIjANBgkqhkiG9w0BAQEFAAOCAQ8AMIIBCgKCAQEA\nwYUjEk7Cjtu4iD5ENUlj++U40U6VNNlGXg8Zj1mEdflso+CtM3YNB0n0r444a+fg\nlel00Po34MXlhTwNIwgusd41KjigmXqObGZS77WGsKXnn1oll/NmWW2O+GE68ooS\nK4JjfZ7hBv1uc2DERHibnjtvmKrdQl3ddwXGtDDa2crkjRsMNO6pra9owq8u0heC\n9sZCkpwd0YUQ1wxyT5DkSQ2hInbFKg4ZYW5o/DE014LpbPWEcnsX9P7hkVXosF5z\nCtNnSNqautgstamt0L3wyKWoj7zXTkpfSMy6dXEBYfagwAwiprYJUhZ8AUh50hOh\nE82JhaRVAYf0zHjgi/fByQIDAQABo3kwdzAdBgNVHQ4EFgQUJvRUZhNyO3pKmcgZ\niUctplW/e0MwVgYDVR0RBE8wTYIZc3NvLm1haXJpZS1zYWludC1tYXVyLmNvbYYw\naHR0cHM6Ly9zc28ubWFpcmllLXNhaW50LW1hdXIuY29tL2lkcC9zaGliYm9sZXRo\nMA0GCSqGSIb3DQEBCwUAA4IBAQAtbzQxM7XY+k89GLbtRpiSxTcqcSdRn8uRHT3N\nkaH8KEvmwkA2+fRCWgMObtSyJgxFl9vpVn7w5d8q48B2Hfv42cF8GuuYKLVp5MMX\nOgnqsLg9Vi482QUl9u2IJzm7XIa4OBe4542fuCm/ZvDp5CYaNlzdzpSMLCr/FZ8Y\noM8nggNbpxNPdEC1ZoY5F2ja4RPbvgccW8dkajxBuKNItmiMjpnoeNZvNwrgXmmf\nyyLk9vPiSVML/XAIoeBOvWXuoA+VJxFUDtIs1t352N8zLnDAoLD1ThWnpCM3tvCv\nYZb+vSCDfLuftNS3Bw97zzoEcv2SR6ChoLMGLZxUiiF3qvc2\n-----END CERTIFICATE-----",
    "idp-signing": "-----BEGIN CERTIFICATE-----\nMIIDUDCCAjigAwIBAgIVAJAtksj1B+UWeKc5AE8LdShLlV2PMA0GCSqGSIb3DQEB\nCwUAMCQxIjAgBgNVBAMMGXNzby5tYWlyaWUtc2FpbnQtbWF1ci5jb20wHhcNMTYw\nODAyMTMyNDMwWhcNMzYwODAyMTMyNDMwWjAkMSIwIAYDVQQDDBlzc28ubWFpcmll\nLXNhaW50LW1hdXIuY29tMIIBIjANBgkqhkiG9w0BAQEFAAOCAQ8AMIIBCgKCAQEA\noBjqwN3e91Dlni3svrZg6dRr+UKUAyXfEPMl/Sg8dUIcbcXj+qwePj/jaMUnznKt\n01M7A4y7Y3VmHn/8YGTZI+cxDXYmUPJFqSy+THAvbWIOYlKnQVFZICqJEzyL4TX6\nKNo8849QR1xKxXkMxq/utN9P6eVe9lE9iasXu50cece4nscCsirzTTzbIx4hDC1k\n/Kpk9OejtryRhjTCC7aQK+KDfxWHLjHcvHs8nfNnixiOf2M3ehYYrfvjbxufz0ra\nDdWIn7sUn/OKAX8FNB1v6SDOSyXw2Bm03D2+QiP+FuaQC978gwkFclkX8s58XXbc\nd0Lr0EF6xAK8eL56CuVtvQIDAQABo3kwdzAdBgNVHQ4EFgQUgZ9ex8oBDQPnK72r\nLz5AHWXaI7cwVgYDVR0RBE8wTYIZc3NvLm1haXJpZS1zYWludC1tYXVyLmNvbYYw\naHR0cHM6Ly9zc28ubWFpcmllLXNhaW50LW1hdXIuY29tL2lkcC9zaGliYm9sZXRo\nMA0GCSqGSIb3DQEBCwUAA4IBAQAKqloVtGoXvoVxwFySOJivGCOrgpI1pZvxxzb1\ntxj3EOCJ88e+wNORc6s5ptWBQeowHkqkgqu5Xp0fcnhIVgiS6v6L9tWhUzN2td+B\nSSvfaENThjYv9vGwa9+1Ap7HDVycjjQ6nzzxK8oEi+dhCFUf3hMgnbbGkxXYxzPp\nA1ndOfKypqwYFLvdROdcLL/W8dvPAbnqnlin1cm1Asn0T3A6EebS+YW3/zhnjEfk\nmADV2nMX0o2VHHKdxb1rfc/NvjTRPHBbrzdQN010xmugIHZjJqWvjeXzWq9WAZHb\nBplis21HcRi3YSDxbSLbTNZnVyah4UM6Ddt6JdLEVus+1M1C\n-----END CERTIFICATE-----",
    "ldap-authn-server": "-----BEGIN CERTIFICATE-----\nMIIDgjCCAmqgAwIBAgIQEVSw/A7QtY5DU/4WnmhMPjANBgkqhkiG9w0BAQsFADBJ\nMRUwEwYKCZImiZPyLGQBGRYFTE9DQUwxGTAXBgoJkiaJk/IsZAEZFglTQUlOVE1B\nVVIxFTATBgNVBAMTDFNBSU5UTUFVUi1DQTAeFw0xNTAzMjIxNzQwMzJaFw0zNTAz\nMjIxNzUwMzFaMEkxFTATBgoJkiaJk/IsZAEZFgVMT0NBTDEZMBcGCgmSJomT8ixk\nARkWCVNBSU5UTUFVUjEVMBMGA1UEAxMMU0FJTlRNQVVSLUNBMIIBIjANBgkqhkiG\n9w0BAQEFAAOCAQ8AMIIBCgKCAQEA4IHnU6aLIuSFSJQ26iaYnoj+K5k7qoXP7UKL\nfYN8s8vJoQ5t/GCpicKYhZ0TlyrROtRsRg4aNmzg6z+VJmNjPQBuTRSPwyfGRmmn\nCE6+AtztbZQKQx+BDRv586aO8y1yCVeI7WrgvKP1u3e5f8P1uTfJKqUNKWxmP80E\nT7n0mi8qXsUJrVVmAI1Pvc0Ue5Aaz/bglKWHzlGD3+qxKbyoksBniHhPJ72VIh9f\n6qEdZyOSVExVEfYhC8pQrbPGwy26wz+3oIHid4S6hxt7k7fpjfpnxhk55+Rd3J/E\nvHj71nUJGvqF7NYD9O4G5KqoWet9GAmjKYbM4M06ZJprIpCtLQIDAQABo2YwZDAT\nBgkrBgEEAYI3FAIEBh4EAEMAQTALBgNVHQ8EBAMCAUYwDwYDVR0TAQH/BAUwAwEB\n/zAdBgNVHQ4EFgQU/gsP2gD4rjzE2Wxqp7uIh4G8rG8wEAYJKwYBBAGCNxUBBAMC\nAQAwDQYJKoZIhvcNAQELBQADggEBAIZvizgl9MuE2/DqCk6CNEQvbko6oC+O/Hzq\niMf5QRh/eUBOecHg/77yo8YNns2DRcu4Qog7UT0DZ2YE6lSRrMD+yddY8gmK/XHV\nyjD20KZCT1tIC4QCkEd5He2R8ywo9sUaREj9hYj9i1jVeUh6BH1ie5i5hdnGzpBZ\nZfmO9LTuRcGvsUGuJ7Am/bwIP0WN1W3y6Z0T083oWeofVUa3qpKu6akxfSUH5MBx\nyTwd93Vmt1LHSVdYBmYCSfU8weJIQyUUWgRd1N+TWa7TE7lHasBGQjXb4CQNd3+4\nLXw2zJDTZc6lG9r+4am6gIMy4vrvO6N9AkImHRZ2Nc/b3DZwdK0=\n-----END CERTIFICATE-----",
    "saintmaur-ca": "-----BEGIN CERTIFICATE-----\nMIIDgjCCAmqgAwIBAgIQEVSw/A7QtY5DU/4WnmhMPjANBgkqhkiG9w0BAQsFADBJ\nMRUwEwYKCZImiZPyLGQBGRYFTE9DQUwxGTAXBgoJkiaJk/IsZAEZFglTQUlOVE1B\nVVIxFTATBgNVBAMTDFNBSU5UTUFVUi1DQTAeFw0xNTAzMjIxNzQwMzJaFw0zNTAz\nMjIxNzUwMzFaMEkxFTATBgoJkiaJk/IsZAEZFgVMT0NBTDEZMBcGCgmSJomT8ixk\nARkWCVNBSU5UTUFVUjEVMBMGA1UEAxMMU0FJTlRNQVVSLUNBMIIBIjANBgkqhkiG\n9w0BAQEFAAOCAQ8AMIIBCgKCAQEA4IHnU6aLIuSFSJQ26iaYnoj+K5k7qoXP7UKL\nfYN8s8vJoQ5t/GCpicKYhZ0TlyrROtRsRg4aNmzg6z+VJmNjPQBuTRSPwyfGRmmn\nCE6+AtztbZQKQx+BDRv586aO8y1yCVeI7WrgvKP1u3e5f8P1uTfJKqUNKWxmP80E\nT7n0mi8qXsUJrVVmAI1Pvc0Ue5Aaz/bglKWHzlGD3+qxKbyoksBniHhPJ72VIh9f\n6qEdZyOSVExVEfYhC8pQrbPGwy26wz+3oIHid4S6hxt7k7fpjfpnxhk55+Rd3J/E\nvHj71nUJGvqF7NYD9O4G5KqoWet9GAmjKYbM4M06ZJprIpCtLQIDAQABo2YwZDAT\nBgkrBgEEAYI3FAIEBh4EAEMAQTALBgNVHQ8EBAMCAUYwDwYDVR0TAQH/BAUwAwEB\n/zAdBgNVHQ4EFgQU/gsP2gD4rjzE2Wxqp7uIh4G8rG8wEAYJKwYBBAGCNxUBBAMC\nAQAwDQYJKoZIhvcNAQELBQADggEBAIZvizgl9MuE2/DqCk6CNEQvbko6oC+O/Hzq\niMf5QRh/eUBOecHg/77yo8YNns2DRcu4Qog7UT0DZ2YE6lSRrMD+yddY8gmK/XHV\nyjD20KZCT1tIC4QCkEd5He2R8ywo9sUaREj9hYj9i1jVeUh6BH1ie5i5hdnGzpBZ\nZfmO9LTuRcGvsUGuJ7Am/bwIP0WN1W3y6Z0T083oWeofVUa3qpKu6akxfSUH5MBx\nyTwd93Vmt1LHSVdYBmYCSfU8weJIQyUUWgRd1N+TWa7TE7lHasBGQjXb4CQNd3+4\nLXw2zJDTZc6lG9r+4am6gIMy4vrvO6N9AkImHRZ2Nc/b3DZwdK0=\n-----END CERTIFICATE-----"
  }
}