{
  "id": "production",
  "users": {
    "encrypted_data": "Y6QB4ketymzlmBHnevDTnHEY98MQhM6PvkHYLkotppWMCvRTbv8zqC56G+EW\nkCLIr36H4EfLxu8NbOc4T9+JvhhpX+WZSDTFqs3AiUC++bE=\n",
    "iv": "+E4Na+XyfjToHDTNCdoQAw==\n",
    "version": 1,
    "cipher": "aes-256-cbc"
  }
}