{
  "id": "preproduction",
  "cas_applications": [
    {
      "id": "esabora",
      "regex": "https://esabora-x\\.saintmaur\\.local(:\\d+)?/.*",
      "authorizedToProxy": "false"
    },
    {
      "id": "glpi",
      "regex": "https://glpi-[a-z]*\\.saintmaur\\.local(:\\d+)?/.*",
      "authorizedToProxy": "false"
    }
  ]
}