{
  "id": "integration",
  "authn": {
    "encrypted_data": "HGgJ2fTt3krA1Ry+3B20ODpLpqFGGZ1ETXABTfxpGnpNzFtXYGMlg+UI0zf9\n2E0bNJ2frUARn2VZUUdJpJ3MOPPbV6d5IZb+CnDUsEkfy+UcAjqZQaI67yKS\nYvUsAFPeV0cLRYjuedkofo7M3xX+VERU09G1znxsvSkOqTKa8LRIMJNb+qDT\nQaLZDPcEEVLb2g83cgz6wDuuJ55z8G0qooJcGbz5wCnqKwRVEVQL3GiqmRTh\nj3QTqauorehXi8Xvxz4zow6dSnHcKt9dSQU2EYUAzA/X2IStxs80dL1xR2lb\nRViNvqEXc8gKWe1Fqf07/Veub37P7VFxAqIwSPyC9dPMh+XKPZMoOn4botkC\nONOPMy0uczRL2YIXGniNY+u8s5c+66kP4ZW0wF+mpS551RE+uWyaWE66q4dj\n7xVMWtvYQbXAmjMrCk8Ikf7JnunbHUvS5eZeh9s1EDTPF1jxgaeDwenFFikM\n9mpOjpxRPLpcGUp52P5K10LH5I8DkxMZE4irUBB+XWaPHKEwM+P6Ac6cNpz0\nKEAELq/TWGOsFndTUuuGKFiS1ABjb+N5X+pzeIFcsDCosR6KGzrTqU3c/Idl\niCStwUQEwcx1H4iocPUV469UHtQi0VnK6o5dD2LvayUM8XL8qVJ75VsNOzEw\n9tyFD6ae4enLbVKBvSjAuxap6MuhVHYFmeFJZwZj4tuhE5tugIDlCa98CAJi\nnGh18MfNLcTDyycKK3c6xLKDK7+w1gZ2QtHlAEM4u9le0Qm9xr5ZEvKqfeAD\nprps92ElpWrK/oJY+SXvMwKpxYRp6UfZr/MbYkAZW/rdN52ODICLlT1Qn50m\nTfFRjF/V3mZtpgVeWAB8XFDG6kJaEveL4EZj0P6Xz088duesc+mdR1+isCvL\nooRbs0d+1FPOFRK9KCnmI+F3a/7h0iI0wmpz64U=\n",
    "iv": "SqlU6z8fhK0cfzPqqjU6cw==\n",
    "version": 1,
    "cipher": "aes-256-cbc"
  }
}